Lab 3 - Data tidying and joining
…
Do not save this new variable in inf_ratio, only calculate and display it so you can answer the following question based on the output of the pipeline.

Which country’s inflation change is the largest over this time period? Did inflation increase of decrease between 1993 and 2021 in this country?

Tip

For this question you’ll once again need to use variables whose names are numbers (years) in your pipeline. Make sure to surround the names of such variables with backticks (`).

country_inflation |>
  mutate(inf_ratio = `2021`/`1993`) |>
  arrange(desc(inf_ratio)) |>
  select(country, inf_ratio)

# A tibble: 44 × 2
   country       inf_ratio
   <chr>             <dbl>
 1 New Zealand        3.06
 2 Canada             1.82
 3 Australia          1.63
 4 Ireland            1.60
 5 United States      1.59
 6 Norway             1.52
 7 Denmark            1.47
 8 Iceland            1.10
 9 Netherlands        1.04
10 Finland            1.00
# ℹ 34 more rows
…
Important

The remaining questions in Part 1 require the use of the pivoted data frame from Question 4.

inflation_pivot <- country_inflation |>
  pivot_longer(
    cols = -country,
    names_to = "year",
    values_to = "annual_inflation",
    names_transform = as.numeric,
  )

inflation_pivot

# A tibble: 1,276 × 3
   country    year annual_inflation
   <chr>     <dbl>            <dbl>
 1 Australia  1993            1.75 
 2 Australia  1994            1.97 
 3 Australia  1995            4.63 
 4 Australia  1996            2.62 
 5 Australia  1997            0.225
 6 Australia  1998            0.860
 7 Australia  1999            1.48 
 8 Australia  2000            4.46 
 9 Australia  2001            4.41 
10 Australia  2002            2.98 
# ℹ 1,266 more rows
…
